…
Pivot the data

trump_longer <- trump %>%
  pivot_longer(
    cols = c(approve_estimate, disapprove_estimate),
    names_to = "rating_type",
    values_to = "rating_value"
  )
trump_longer

## # A tibble: 8,106 × 10
##    president    subgroup  modeldate  approve_hi approve_lo disapprove_hi
##    <chr>        <chr>     <chr>           <dbl>      <dbl>         <dbl>
##  1 Donald Trump Voters    10/04/2020       49.1       40.2          56.8
##  2 Donald Trump Voters    10/04/2020       49.1       40.2          56.8
##  3 Donald Trump Adults    10/04/2020       47.3       39.1          57.2
##  4 Donald Trump Adults    10/04/2020       47.3       39.1          57.2
##  5 Donald Trump All polls 10/04/2020       48.6       39.8          56.6
##  6 Donald Trump All polls 10/04/2020       48.6       39.8          56.6
##  7 Donald Trump All polls 10/03/2020       48.9       39.9          56.3
##  8 Donald Trump All polls 10/03/2020       48.9       39.9          56.3
##  9 Donald Trump Adults    10/03/2020       47.3       39.1          57.2
## 10 Donald Trump Adults    10/03/2020       47.3       39.1          57.2
## # … with 8,096 more rows, and 4 more variables: disapprove_lo <dbl>,
## #   timestamp <chr>, rating_type <chr>, rating_value <dbl>
…
