…
nobel <- read_csv(file = "https://github.com/Lior1430/tidyverse/blob/main/nobel.csv")

## Warning: One or more parsing issues, see `problems()` for details

## Rows: 28273 Columns: 1
## ── Column specification ────────────────────────────────────────────────────────
## Delimiter: ","
## chr (1): <!DOCTYPE html>
## 
## ℹ Use `spec()` to retrieve the full column specification for this data.
## ℹ Specify the column types or set `show_col_types = FALSE` to quiet this message.

nobel

## # A tibble: 28,273 × 1
##    `<!DOCTYPE html>`                                                            
##    <chr>                                                                        
##  1 "<html lang=\"en\" data-color-mode=\"auto\" data-light-theme=\"light\" data-…
##  2 "<head>"                                                                     
##  3 "<meta charset=\"utf-8\">"                                                   
##  4 "<link rel=\"dns-prefetch\" href=\"https://github.githubassets.com\">"       
##  5 "<link rel=\"dns-prefetch\" href=\"https://avatars.githubusercontent.com\">" 
##  6 "<link rel=\"dns-prefetch\" href=\"https://github-cloud.s3.amazonaws.com\">" 
##  7 "<link rel=\"dns-prefetch\" href=\"https://user-images.githubusercontent.com…
##  8 "<link rel=\"preconnect\" href=\"https://github.githubassets.com\" crossorig…
##  9 "<link rel=\"preconnect\" href=\"https://avatars.githubusercontent.com\">"   
## 10 "<link crossorigin=\"anonymous\" media=\"all\" integrity=\"sha512-dkuYFW+ra8…
## # … with 28,263 more rows
…
